A Tidy Framework to Hack Gene Expression Signatures • hacksig
…
# install.packages("devtools")
devtools::install_github("Acare/hacksig")

Usage

You can learn more about usage of the package in vignette("hacksig").

library(hacksig)
library(dplyr)
library(future)

Available signatures

get_sig_info()
#> # A tibble: 40 × 4
#>   signature_id       signature_keywords              publication_doi description
#>   <chr>              <chr>                           <chr>           <chr>      
#> 1 ayers2017_immexp   ayers2017_immexp|immune expand… 10.1172/JCI911… Immune exp…
#> 2 bai2019_immune     bai2019_immune|head and neck s… 10.1155/2019/3… Immune/inf…
#> 3 cinsarc            cinsarc|metastasis|sarcoma|sts  10.1038/nm.2174 Biomarker …
#> 4 dececco2014_int172 dececco2014_int172|head and ne… 10.1093/annonc… Signature …
#> 5 eschrich2009_rsi   eschrich2009_rsi|radioresistan… 10.1016/j.ijro… Genes aime…
#> # ℹ 35 more rows

Check your signatures

check_sig(test_expr, signatures = "estimate")
#> # A tibble: 2 × 5
#>   signature_id     n_genes n_present frac_present missing_genes
#>   <chr>              <int>     <int>        <dbl> <list>       
#> 1 estimate_stromal     141        91        0.645 <chr [50]>   
#> 2 estimate_immune      141        74        0.525 <chr [67]>

Compute single sample scores

hack_sig(test_expr, signatures = c("ifng", "cinsarc"), method = "zscore")
#> # A tibble: 20 × 3
#>   sample_id cinsarc muro2016_ifng
#>   <chr>       <dbl>         <dbl>
#> 1 sample1   -0.482         -0.511
#> 2 sample10  -0.0926        -1.60 
#> 3 sample11   0.730         -1.03 
#> 4 sample12  -0.625          0.851
#> 5 sample13   0.930         -0.369
#> # ℹ 15 more rows

Stratify your samples

test_expr %>% 
    hack_sig("estimate", method = "singscore", direction = "up") %>% 
    stratify_sig(cutoff = "median")
#> # A tibble: 20 × 3
#>   sample_id estimate_immune estimate_stromal
#>   <chr>     <chr>           <chr>           
#> 1 sample1   low             low             
#> 2 sample10  high            high            
#> 3 sample11  high            low             
#> 4 sample12  high            low             
#> 5 sample13  low             low             
#> # ℹ 15 more rows

Speed-up computation time

plan(multisession)
hack_sig(test_expr, method = "ssgsea")
#> Warning: ℹ No genes are present in 'expr_data' for the following signatures:
#> ✖ zhu2021_ferroptosis
#> ✖ rooney2015_cyt
#> # A tibble: 20 × 39
#>   sample_id ayers2017_immexp bai2019_immune cinsarc dececco2014_int172
#>   <chr>                <dbl>          <dbl>   <dbl>              <dbl>
#> 1 sample1             -3914.          2316.   -13.5              1288.
#> 2 sample10             1077.           575.   801.                811.
#> 3 sample11              501.          -490.  1340.               1244.
#> 4 sample12             2315.          1034.  -151.                981.
#> 5 sample13            -2179.           327.  1737.               1288.
#> # ℹ 15 more rows
#> # ℹ 34 more variables: eschrich2009_rsi <dbl>, estimate_immune <dbl>,
#> #   estimate_stromal <dbl>, eustace2013_hypoxia <dbl>,
#> #   fan2021_ferroptosis <dbl>, fang2021_irgs <dbl>, han2021_ferroptosis <dbl>,
#> #   he2021_ferroptosis_a <dbl>, he2021_ferroptosis_b <dbl>, hu2021_derbp <dbl>,
#> #   huang2022_ferroptosis <dbl>, ips_cp <dbl>, ips_ec <dbl>, ips_mhc <dbl>,
#> #   ips_sc <dbl>, li2021_ferroptosis_a <dbl>, li2021_ferroptosis_b <dbl>, …
…
