…
## Usage

You can learn more about usage of the package in `vignette("hacksig")`.

``` r
library(hacksig)
library(dplyr)
library(future)
```

### Get available signatures

``` r
get_sig_info()
#> # A tibble: 23 × 4
#>   signature_id       signature_keywords                          publi…¹ descr…²
#>   <chr>              <chr>                                       <chr>   <chr>  
#> 1 ayers2017_immexp   ayers2017_immexp|immune expanded            10.117… Immune…
#> 2 bai2019_immune     bai2019_immune|head and neck|hnscc|inflamm… 10.115… Immune…
#> 3 cinsarc            cinsarc|metastasis|sarcoma|sts              10.103… Biomar…
#> 4 dececco2014_int172 dececco2014_int172|head and neck|hnscc      10.109… Signat…
#> 5 eschrich2009_rsi   eschrich2009_rsi|radioresistance|radiosens… 10.101… Genes …
#> # … with 18 more rows, and abbreviated variable names ¹​publication_doi,
#> #   ²​description
```
…
``` r
check_sig(test_expr, signatures = "estimate")
#> # A tibble: 2 × 5
#>   signature_id     n_genes n_present frac_present missing_genes
#>   <chr>              <int>     <int>        <dbl> <named list> 
#> 1 estimate_stromal     141        91        0.645 <chr [50]>   
#> 2 estimate_immune      141        74        0.525 <chr [67]>
```

### Compute single sample scores

``` r
hack_sig(test_expr, signatures = c("ifng", "cinsarc"), method = "zscore")
#> # A tibble: 20 × 3
#>   sample_id cinsarc muro2016_ifng
#>   <chr>       <dbl>         <dbl>
#> 1 sample1    -0.482       -0.511 
#> 2 sample2    -2.61         0.400 
#> 3 sample3     1.44         0.347 
#> 4 sample4    -0.538        0.0849
#> 5 sample5    -0.537        0.390 
#> # … with 15 more rows
```

### Stratify your samples

``` r
test_expr %>% 
    hack_sig("estimate", method = "singscore", direction = "up") %>% 
    hack_class(cutoff = "median")
#> # A tibble: 20 × 3
#>   sample_id estimate_immune estimate_stromal
#>   <chr>     <chr>           <chr>           
#> 1 sample1   low             low             
#> 2 sample2   high            low             
#> 3 sample3   low             low             
#> 4 sample4   low             high            
#> 5 sample5   low             high            
#> # … with 15 more rows
```

### Speed-up computation time

``` r
plan(multisession)
hack_sig(test_expr, method = "ssgsea")
#> Warning: ℹ No genes are present in 'expr_data' for the following signatures:
#> ✖ rooney2015_cyt
#> # A tibble: 20 × 23
#>   sample_id ayers2017_…¹ bai20…² cinsarc decec…³ eschr…⁴ estim…⁵ estim…⁶ eusta…⁷
#>   <chr>            <dbl>   <dbl>   <dbl>   <dbl>   <dbl>   <dbl>   <dbl>   <dbl>
#> 1 sample1         -3914.   2316.   -13.5   1288.   1678.   -636.    778.    49.4
#> 2 sample2         -3348.   1350. -1070.    1322.   3605.   2118.    703.   673. 
#> 3 sample3          1697.   1829.  1805.     685.  -2207.    725.    805.   -22.6
#> 4 sample4           366.   5611.   326.    1684.    975.    737.   2031.  2202. 
#> 5 sample5           969.   1224.   290.     718.   4109.    181.   1129.  1571. 
#> # … with 15 more rows, 14 more variables: fang2021_irgs <dbl>,
#> #   hu2021_derbp <dbl>, ips_cp <dbl>, ips_ec <dbl>, ips_mhc <dbl>,
#> #   ips_sc <dbl>, li2021_irgs <dbl>, liu2020_immune <dbl>, liu2021_mgs <dbl>,
#> #   lohavanichbutr2013_hpvneg <dbl>, muro2016_ifng <dbl>, qiang2021_irgs <dbl>,
#> #   she2020_irgs <dbl>, wu2020_metabolic <dbl>, and abbreviated variable names
#> #   ¹​ayers2017_immexp, ²​bai2019_immune, ³​dececco2014_int172, ⁴​eschrich2009_rsi,
#> #   ⁵​estimate_immune, ⁶​estimate_stromal, ⁷​eustace2013_hypoxia
```
…
